^C:\DROPBOX\PROGRAMS\CONSOLE DUNGEON\CONSOLE DUNGEON\DEBUG\CONSOLE DUNGEON.SBR|C:\DROPBOX\PROGRAMS\CONSOLE DUNGEON\CONSOLE DUNGEON\DEBUG\CREATURE.SBR|C:\DROPBOX\PROGRAMS\CONSOLE DUNGEON\CONSOLE DUNGEON\DEBUG\ENGINE.SBR|C:\DROPBOX\PROGRAMS\CONSOLE DUNGEON\CONSOLE DUNGEON\DEBUG\MAP.SBR|C:\DROPBOX\PROGRAMS\CONSOLE DUNGEON\CONSOLE DUNGEON\DEBUG\OBJECT.SBR|C:\DROPBOX\PROGRAMS\CONSOLE DUNGEON\CONSOLE DUNGEON\DEBUG\PLAYER.SBR|C:\DROPBOX\PROGRAMS\CONSOLE DUNGEON\CONSOLE DUNGEON\DEBUG\STDAFX.SBR|C:\DROPBOX\PROGRAMS\CONSOLE DUNGEON\CONSOLE DUNGEON\DEBUG\TEXTURE.SBR
C:\WINDOWS\SYSTEM32\TZRES.DLL
C:\DROPBOX\PROGRAMS\CONSOLE DUNGEON\CONSOLE DUNGEON\DEBUG\CONSOLE DUNGEON.SBR
C:\DROPBOX\PROGRAMS\CONSOLE DUNGEON\CONSOLE DUNGEON\DEBUG\CREATURE.SBR
C:\DROPBOX\PROGRAMS\CONSOLE DUNGEON\CONSOLE DUNGEON\DEBUG\ENGINE.SBR
C:\DROPBOX\PROGRAMS\CONSOLE DUNGEON\CONSOLE DUNGEON\DEBUG\MAP.SBR
C:\DROPBOX\PROGRAMS\CONSOLE DUNGEON\CONSOLE DUNGEON\DEBUG\OBJECT.SBR
C:\DROPBOX\PROGRAMS\CONSOLE DUNGEON\CONSOLE DUNGEON\DEBUG\PLAYER.SBR
C:\DROPBOX\PROGRAMS\CONSOLE DUNGEON\CONSOLE DUNGEON\DEBUG\STDAFX.SBR
C:\DROPBOX\PROGRAMS\CONSOLE DUNGEON\CONSOLE DUNGEON\DEBUG\TEXTURE.SBR
